\select@language {czech}
\contentsline {chapter}{\numberline {1}URL adresy}{2}{chapter.1}
\contentsline {section}{\numberline {1.1}Validn\IeC {\'\i } hodnoty parametru page}{2}{section.1.1}
\contentsline {chapter}{\numberline {2}Pou\IeC {\v z}it\IeC {\'e} technologie}{4}{chapter.2}
\contentsline {chapter}{\numberline {3}Popis adres\IeC {\'a}\IeC {\v r}ov\IeC {\'e} struktury}{5}{chapter.3}
\contentsline {chapter}{\numberline {4}Popis architektury}{6}{chapter.4}
